Magento_ID,Customer_No,BP Item No,Quanity,Posting Date,Item_No,Unit Price,Amount,SFExternalID
182,C025962,CO2 SMALL RENT,5,5/29/2021,532020,10.44,52.2,0010h00001jZaCrAAK
179,C025977,CO2 SMALL RENT,15,5/29/2021,532020,10.44,156.6,0011F00000qDI39QAG
