<?xml version="1.0" standalone="no"?>
<!DOCTYPE svg PUBLIC "-//W3C//DTD SVG 20010904//EN"
 "http://www.w3.org/TR/2001/REC-SVG-20010904/DTD/svg10.dtd">
<svg version="1.0" xmlns="http://www.w3.org/2000/svg"
 width="7042.000000pt" height="2550.000000pt" viewBox="0 0 7042.000000 2550.000000"
 preserveAspectRatio="xMidYMid meet">

<g transform="translate(0.000000,2550.000000) scale(0.100000,-0.100000)"
fill="#000000" stroke="none">
<path d="M51075 19203 c-961 -57 -1837 -374 -2583 -933 -906 -678 -1550 -1663
-1822 -2785 -154 -632 -190 -1294 -109 -1955 236 -1912 1482 -3488 3219 -4070
661 -222 1383 -291 2095 -200 817 104 1593 434 2238 951 l112 90 5 -283 c5
-266 7 -287 28 -341 54 -134 181 -246 318 -281 70 -18 207 -21 273 -5 163 37
313 187 350 350 7 29 11 706 11 1965 0 2115 4 1965 -61 2080 -40 71 -127 150
-207 187 l-67 32 -1062 3 c-1056 2 -1063 2 -1125 -19 -332 -112 -434 -528
-190 -778 55 -56 99 -85 186 -119 36 -15 124 -18 791 -22 l750 -5 3 -748 2
-749 -117 -120 c-477 -488 -1073 -867 -1688 -1073 -412 -139 -724 -190 -1165
-190 -433 0 -757 47 -1145 167 -601 185 -1187 570 -1604 1053 -428 496 -729
1113 -877 1800 -71 334 -99 616 -98 1015 0 434 34 718 130 1101 234 934 758
1716 1510 2255 355 254 815 462 1260 569 307 74 551 100 929 99 321 0 475 -12
753 -59 626 -106 1244 -341 1749 -667 50 -32 116 -67 146 -78 162 -57 351 -20
475 93 176 162 227 386 132 583 -42 87 -99 146 -214 223 -753 504 -1677 798
-2706 861 -150 9 -499 11 -625 3z"/>
<path d="M44738 19080 c-102 -18 -241 -77 -318 -134 -210 -157 -321 -394 -307
-656 10 -170 56 -300 156 -431 87 -116 267 -250 478 -357 l112 -57 78 39 c114
56 256 141 348 207 168 121 265 255 317 436 31 109 31 285 0 396 -75 265 -280
472 -537 542 -70 19 -259 28 -327 15z"/>
<path d="M20518 19031 c-149 -48 -273 -181 -307 -332 -14 -61 -14 -8907 0
-8968 35 -153 158 -285 310 -332 59 -18 135 -19 2537 -19 2066 0 2486 3 2528
14 227 60 379 291 345 523 -16 106 -60 194 -135 268 -34 33 -84 73 -113 88
-112 60 7 57 -2340 57 l-2153 0 0 1725 0 1725 1638 0 c1556 0 1641 1 1703 18
241 67 389 309 338 554 -26 126 -125 261 -235 320 -113 61 -14 58 -1806 58
l-1638 0 0 1685 0 1685 2023 0 c1410 0 2041 3 2083 11 169 31 315 159 366 323
22 71 26 199 8 267 -42 154 -165 282 -317 329 -64 20 -89 20 -2422 19 -2257 0
-2358 -1 -2413 -18z"/>
<path d="M5305 16763 c-422 -36 -741 -125 -1073 -298 -236 -123 -438 -271
-628 -460 -411 -409 -666 -922 -756 -1520 -21 -141 -18 -570 6 -720 89 -573
344 -1083 741 -1480 432 -432 992 -697 1592 -754 116 -11 430 -11 518 0 39 4
90 11 115 14 183 23 457 100 649 182 209 89 451 233 626 374 351 283 723 773
1092 1439 115 208 323 607 323 619 0 34 -359 717 -502 955 -274 456 -593 839
-903 1086 -386 307 -836 489 -1370 555 -60 7 -374 13 -430 8z"/>
<path d="M29035 16559 c-308 -22 -616 -95 -883 -210 -798 -342 -1248 -1064
-1191 -1912 48 -726 463 -1241 1334 -1658 187 -89 329 -149 775 -327 457 -183
568 -231 780 -337 239 -121 363 -206 495 -339 122 -122 171 -202 217 -346 20
-66 23 -94 22 -230 -1 -180 -18 -260 -85 -400 -266 -559 -1093 -768 -1999
-504 -310 89 -644 262 -913 472 -99 77 -166 109 -261 124 -324 50 -620 -260
-556 -584 26 -133 82 -215 230 -334 208 -168 530 -358 800 -472 285 -121 607
-206 955 -253 216 -29 628 -37 830 -15 1047 112 1798 725 1975 1611 29 141 39
456 20 614 -63 535 -339 956 -852 1298 -281 188 -554 320 -1173 566 -829 330
-1100 469 -1318 676 -209 199 -286 386 -274 666 7 156 30 253 92 380 171 354
606 555 1198 555 479 0 921 -128 1285 -373 138 -92 210 -119 325 -119 146 0
249 44 347 148 192 206 197 499 11 685 -129 128 -500 336 -776 435 -421 150
-938 217 -1410 183z"/>
<path d="M35565 16564 c-775 -58 -1362 -316 -1849 -813 -60 -61 -111 -111
-112 -111 -2 0 -4 83 -4 184 0 155 -3 194 -20 248 -64 209 -246 338 -474 338
-206 0 -382 -125 -458 -326 l-23 -59 0 -4440 c0 -4305 1 -4442 19 -4508 49
-177 205 -313 391 -340 248 -36 474 101 545 330 20 64 20 91 20 1580 l0 1515
133 -134 c436 -441 929 -692 1542 -784 159 -24 549 -29 735 -10 1233 130 2185
943 2599 2217 105 325 173 680 202 1058 15 203 7 787 -15 971 -78 684 -245
1218 -530 1697 -136 230 -264 392 -460 588 -441 440 -997 702 -1652 780 -125
15 -487 27 -589 19z m405 -974 c857 -107 1496 -747 1739 -1742 71 -292 100
-516 108 -848 20 -811 -169 -1504 -550 -2020 -91 -123 -277 -313 -393 -401
-262 -200 -554 -322 -895 -376 -170 -26 -453 -24 -622 6 -383 67 -708 239
-993 526 -397 401 -660 1000 -751 1710 -25 196 -25 696 0 910 108 911 447
1564 1007 1940 219 147 500 248 805 289 122 17 430 20 545 6z"/>
<path d="M58865 16559 c-460 -22 -918 -123 -1340 -296 -157 -64 -409 -194
-530 -274 -116 -77 -160 -124 -206 -223 -27 -59 -33 -83 -37 -166 -6 -118 17
-207 74 -291 106 -157 233 -228 406 -229 112 0 177 20 303 97 506 306 1126
461 1692 424 858 -57 1291 -462 1413 -1321 8 -60 29 -361 30 -431 0 -14 -48
-17 -452 -22 -792 -11 -1273 -56 -1803 -168 -1173 -248 -1911 -783 -2170
-1573 -178 -542 -147 -1136 84 -1621 108 -226 221 -386 400 -566 461 -462
1142 -700 1936 -676 595 19 1105 205 1565 574 96 76 324 302 385 381 22 28 43
51 48 52 4 0 7 -103 7 -228 0 -241 6 -286 52 -376 27 -53 109 -138 170 -177
135 -87 351 -92 502 -11 64 34 153 123 188 188 61 113 58 -17 58 2264 0 2082
-3 2268 -36 2525 -68 535 -249 998 -522 1336 -83 103 -281 291 -381 363 -305
218 -696 365 -1125 421 -112 14 -455 37 -521 33 -16 0 -102 -5 -190 -9z m1803
-3724 c5 -95 -16 -408 -38 -545 -52 -340 -138 -615 -285 -915 -452 -920 -1232
-1356 -2119 -1185 -655 127 -1096 613 -1096 1207 0 478 244 856 710 1100 524
274 1386 405 2630 399 l195 -1 3 -60z"/>
<path d="M64910 16560 c-839 -49 -1504 -404 -1873 -1000 -183 -296 -280 -692
-264 -1070 29 -646 330 -1116 966 -1507 258 -159 504 -273 1146 -528 427 -170
602 -246 808 -352 374 -193 582 -386 666 -618 113 -312 24 -692 -219 -934
-256 -255 -655 -384 -1140 -368 -590 21 -1100 205 -1597 579 -118 88 -174 114
-270 127 -235 33 -470 -126 -538 -363 -27 -94 -17 -234 22 -317 46 -97 81
-138 194 -229 470 -379 1059 -628 1694 -719 901 -128 1677 49 2227 509 359
299 582 695 655 1163 21 139 21 427 -1 572 -80 530 -356 930 -871 1268 -272
177 -535 303 -1165 554 -470 187 -604 245 -811 348 -260 130 -409 233 -545
377 -182 193 -252 427 -213 715 13 98 66 255 110 328 199 330 610 508 1174
508 485 0 921 -127 1294 -377 135 -90 207 -116 321 -116 140 0 248 47 342 149
71 76 113 150 133 232 39 169 -5 331 -124 449 -111 111 -403 284 -647 383
-442 181 -973 266 -1474 237z"/>
<path d="M42585 16449 c-612 -82 -1151 -413 -1554 -957 l-76 -102 -5 322 c-6
299 -8 327 -28 381 -77 208 -272 330 -500 314 -195 -13 -355 -132 -425 -314
l-22 -58 -3 -3110 c-3 -3456 -8 -3191 64 -3311 95 -158 232 -234 424 -234 192
0 329 76 424 233 69 116 66 40 66 1609 0 847 4 1471 10 1558 35 503 144 967
327 1395 302 709 761 1150 1313 1265 67 14 169 25 280 30 138 6 186 12 228 28
199 76 312 246 312 467 0 174 -68 312 -201 405 -103 72 -146 82 -369 86 -107
1 -226 -2 -265 -7z"/>
<path d="M44733 16396 c-174 -44 -316 -191 -352 -364 -8 -38 -11 -932 -11
-3145 0 -2746 2 -3099 15 -3152 42 -159 157 -282 316 -335 54 -19 82 -21 179
-18 109 3 119 5 193 40 141 67 239 194 266 342 15 80 16 6179 1 6257 -30 159
-155 307 -308 361 -72 26 -225 33 -299 14z"/>
<path d="M12419 12336 c-2 -2 -76 -7 -163 -11 -88 -4 -167 -8 -175 -10 -9 -1
-77 -6 -151 -10 -74 -4 -146 -9 -160 -10 -14 -2 -37 -4 -51 -4 -22 -1 -40 -25
-136 -178 -387 -621 -598 -1022 -793 -1504 -118 -292 -181 -615 -183 -944 -2
-300 36 -550 129 -836 71 -220 156 -398 302 -634 107 -174 164 -246 307 -390
402 -406 895 -659 1465 -756 161 -27 505 -37 676 -20 702 71 1348 422 1785
971 688 862 766 2036 199 2991 -361 608 -971 1057 -1655 1220 -159 37 -512 91
-690 105 -44 3 -91 8 -105 10 -31 6 -596 15 -601 10z"/>
</g>
</svg>
