CustomerNo,Customer_Email,PO_Number,Order_Date,BP_Customer_ID,BP_Order_Number,Quantity,LineNumber,BP_Order_Item_Number,Description,Rush_Delivery
NAV00022,tom.alter@yopmail.com,,2021-03-03,35,BP012000043,1,1,Nitrogen60Content,Nitrogen60Content,Yes
NAV00022,tom.alter@yopmail.com,,2021-03-03,35,BP012000043,1,2,CO2 Bulk Order-1,CO2 Bulk Order-1,Yes
