CustomerNo,Customer_Email,PO_Number,Order_Date,BP_Customer_ID,BP_Order_Number,Quantity,LineNumber,BP_Order_Item_Number,Description,Rush_Delivery
NAV00022,tom.alter@yopmail.com,,2021-03-04,35,BP012000023,1,1,CO2 50 Lb Content-1,CO2 50 Lb Content-1,Yes
NAV00022,tom.alter@yopmail.com,,2021-03-04,35,BP012000023,1,2,Nitrogen60Content,Nitrogen60Content,Yes
