CustomerNo,Customer_Email,PO_Number,Order_Date,BP_Customer_ID,BP_Order_Number,Quantity,LineNumber,BP_Order_Item_Number,Description,Rush_Delivery
NAV00022,tom.alter@yopmail.com,,2021-04-23,35,BP012000071,1,1,BEERGASN27525CO2200CONTENT-1-1-1,BEERGASN27525CO2200CONTENT-1-1-1,No
NAV00022,tom.alter@yopmail.com,,2021-04-23,35,BP012000071,1,2,CO2 20 LB CONTENT-1,CO2 20 LB CONTENT-1,No
NAV00022,tom.alter@yopmail.com,,2021-04-23,35,BP012000071,1,3,NITROGEN80CONTENT-1,NITROGEN80CONTENT-1,No
