CustomerNo,Customer_Email,PO_Number,Order_Date,BP_Customer_ID,BP_Order_Number,Quantity,LineNumber,BP_Order_Item_Number,Description,Rush_Delivery
NAV0058,robort.brown@yupmail.com,,2021-03-03,58,BP012000042,1,1,CO2 50 Lb Content-1,CO2 50 Lb Content-1,Yes
NAV0058,robort.brown@yupmail.com,,2021-03-03,58,BP012000042,7,2,CO2 20 Lb Content-1,CO2 20 Lb Content-1,Yes
