CustomerNo,Customer_Email,PO_Number,Order_Date,BP_Customer_ID,BP_Order_Number,Quantity,LineNumber,BP_Order_Item_Number,Description,Rush_Delivery
NAV00022,tom.alter@yopmail.com,,2021-03-09,35,BP012000061,3,1,CO2 20 Lb Content-1,CO2 20 Lb Content-1,No
NAV00022,tom.alter@yopmail.com,,2021-03-09,35,BP012000061,1,2,Propane20CF,Propane20CF,No
