sku,store_view_code,attribute_set_code,product_type,categories,product_websites,name,description,short_description,weight,product_online,tax_class_name,visibility,price,special_price,special_price_from_date,special_price_to_date,url_key,meta_title,meta_keywords,meta_description,base_image,base_image_label,small_image,small_image_label,thumbnail_image,thumbnail_image_label,swatch_image,swatch_image_label,created_at,updated_at,new_from_date,new_to_date,display_product_options_in,map_price,msrp_price,map_enabled,gift_message_available,custom_design,custom_design_from,custom_design_to,custom_layout_update,page_layout,product_options_container,msrp_display_actual_price_type,country_of_manufacture,additional_attributes,qty,out_of_stock_qty,use_config_min_qty,is_qty_decimal,allow_backorders,use_config_backorders,min_cart_qty,use_config_min_sale_qty,max_cart_qty,use_config_max_sale_qty,is_in_stock,notify_on_stock_below,use_config_notify_stock_qty,manage_stock,use_config_manage_stock,use_config_qty_increments,qty_increments,use_config_enable_qty_inc,enable_qty_increments,is_decimal_divided,website_id,related_skus,related_position,crosssell_skus,crosssell_position,upsell_skus,upsell_position,additional_images,additional_image_labels,hide_from_product_page,custom_options,bundle_price_type,bundle_sku_type,bundle_price_view,bundle_weight_type,bundle_values,bundle_shipment_type,associated_skus,downloadable_links,downloadable_samples,configurable_variations,configurable_variation_labels
"CO2 20 Lb Content",,Default,simple,"Default Category,Default Category/All Products",base,"Beverage Grade Carbon Dioxide 20lb Rent",,"<p>20lbs of CO<sub>2</sub> that can supply roughly 1,500 16oz sodas.</p>
<p> </p>
<p><strong>Tank Dimensions:</strong></p>
<p>A 20lb tank can usually fit underneath a countertop 28 in x 8 in diameter</p>
<p>Tank & cylinder weigh ~55lbs.</p>",,2,"Taxable Goods","Catalog, Search",29.000000,,,,small-co-sub-2-sub-20-lb-content,"Small CO2 20 Lb Content","Small CO2 20 Lb Content","Small CO2 20 Lb Content ",/p/r/product-1.png,,/p/r/product-1.png,,/p/r/product-1.png,,/p/r/product-1.png,,"12/19/20, 6:14 AM","2/4/21, 6:52 PM",,,"Block after Info Column",,,,"Use config",,,,,,,"Use config",,"stripe_sub_enabled=No,stripe_sub_interval=Months",100.0000,0.0000,1,0,0,1,1.0000,1,10000.0000,1,1,1.0000,1,1,1,1,1.0000,1,1,0,0,,,,,,,/p/r/product-1.png,,,,,,,,,,,,,,
"CO2 50 Lb Content",,Default,simple,"Default Category,Default Category/All Products",base,"Beverage Grade Carbon Dioxide 50lb Rent",,"<p>50lbs of CO<sub>2</sub> that can supply roughly 3,750 16oz sodas.</p>
<p> </p>
<p><strong>Tank Dimensions:</strong></p>
<p>A 50lb tank can usually fit in its own space next to the BIB in a separate area from the Fountain dispenser</p>
<p>56 in x 8.5 in diameter</p>
<p>Tank & cylinder weigh ~120lbs.</p>",,2,"Taxable Goods","Catalog, Search",38.000000,,,,large-co-sub-2-sub-50-lb-content,"Large CO2 50 Lb Tank","Large CO2 50 Lb Content","Large CO2 50 Lb Tank",/p/r/product-2_1.png,,/p/r/product-2_1.png,,/p/r/product-2_1.png,,/p/r/product-2_1.png,,"12/19/20, 6:30 AM","1/21/21, 6:25 AM",,,"Block after Info Column",,,,"Use config",,,,,,,"Use config",,"stripe_sub_enabled=Yes,stripe_sub_interval=Months,stripe_sub_interval_count=1",100.0000,0.0000,1,0,0,1,1.0000,1,1.0000,0,1,1.0000,1,1,1,1,1.0000,1,1,0,0,,,,,,,/p/r/product-2_1.png,,,,,,,,,,,,,,
"CO2 Bulk Order",,Default,simple,"Default Category,Default Category/All Products",base,"Beverage Grade Carbon Dioxide Bulk Rent",,"<p>Request a bulk tank Refill. A CO<sub>2</sub> truck will top off your CO<sub>2</sub> needs.</p>",,2,"Taxable Goods","Catalog, Search",15.000000,,,,co-sub-2-sub-bulk-order,"CO2 Bulk Order","CO2 Bulk Order","CO2 Bulk Order ",/p/r/product-3.png,,/p/r/product-3.png,,/p/r/product-3.png,,/p/r/product-3.png,,"12/19/20, 6:31 AM","1/21/21, 6:25 AM",,,"Block after Info Column",,,,"Use config",,,,,,,"Use config",,"stripe_sub_enabled=No,stripe_sub_interval=Months",100.0000,0.0000,1,0,0,1,1.0000,1,1.0000,0,1,1.0000,1,1,1,1,1.0000,1,1,0,0,,,,,,,/p/r/product-3.png,,,,,,,,,,,,,,
"Nitrogen E Content",,Default,simple,"Default Category,Default Category/All Products",base,"Nitrogen E Content",,"<p>Food Grade Nitrogen</p>",,2,"Taxable Goods","Catalog, Search",6.000000,,,,nitrogen-e-content,"Nitrogen E Content","Nitrogen E Content","Nitrogen E Content ",/p/r/product-3.png,,/p/r/product-3.png,,/p/r/product-3.png,,/p/r/product-3.png,,"12/19/20, 6:32 AM","1/20/21, 10:31 AM",,,"Block after Info Column",,,,"Use config",,,,,,,"Use config",,"stripe_sub_enabled=No,stripe_sub_interval=Months",100.0000,0.0000,1,0,0,1,1.0000,1,1.0000,0,1,1.0000,1,1,1,1,1.0000,1,1,0,0,,,,,,,/p/r/product-3.png,,,,,,,,,,,,,,
Nitrogen20Content,,Default,simple,"Default Category,Default Category/All Products",base,"Food Grade Nitrogen 20lb Tank",,"<div>
<p><strong>PRODUCT DESCRIPTION:</strong></p>
<p>Nitrogen (N<sub>2</sub>) is a colorless, odorless gas.  Nitrogen may exist as a solid, liquid or gas.  Nitrogen is primarily used for draft beer, cold brew coffee, tea, and wine on tap.  Nitrogen is sold by cubic feet (cf.) and available in high pressure cylinders such as this.</p>
<br />
<p><strong>PRODUCT DETAILS:</strong></p>
<br />
<ul>
<li>5.25″ diameter x 18″ height (with valve) </li>
</ul>
<p><strong>(Note: due to differences between manufacturers, cylinder height may vary by +/- several inches.)</strong></p>
<ul>
<li>UN/ISO stamped</li>
<li>DOT approved</li>
<li>Tare Weight is approx. 11 lbs.</li>
<li>Certified or hydro-tested every 5-10yrs. (based on steel/ aluminum)</li>
<li>Product and cylinder are leak tested on each fill</li>
<li>CGA580 Connection valve</li>
<li>Food Grade Gas</li>
</ul>
</div>",20.000000,1,"Taxable Goods","Catalog, Search",29.000000,,,,food-grade-nitrogen-20lb-tank,,,,/n/i/nitrogen_20_500x500.png,,/n/i/nitrogen_20_300x300.png,,/n/i/nitrogen_20_300x300.png,,/n/i/nitrogen_20_300x300.png,,"1/12/21, 10:07 AM","2/20/21, 10:32 AM",,,"Block after Info Column",,,,"Use config",,,,,,,"Use config",,"am_subscription_only=Yes,documention_title=View SDS Sheet,documention_url=http://www.esprigas.com/sites/default/files/msds-sheets/Nitrogen%20SDS.pdf,stripe_sub_enabled=No,stripe_sub_interval=Months",100.0000,0.0000,1,0,0,1,1.0000,1,100.0000,0,1,1.0000,1,1,1,1,1.0000,1,1,0,0,,,,,,,"/n/i/nitrogen_20_100x100.png,/n/i/nitrogen_20_300x300.png,/n/i/nitrogen_20_500x500.png",",,",,,,,,,,,,,,,
Nitrogen40Content,,Default,simple,"Default Category,Default Category/All Products",base,"Food Grade Nitrogen 40cf Rent",,"<p>40 cubic feet of Food Grade Nitrogen with 98%-99.5% purity level.</p>",20.000000,2,"Taxable Goods","Catalog, Search",29.000000,,,,nitrogen-40-content,,,,/4/0/40lb.png,,/4/0/40lb.png,,/4/0/40lb.png,,/4/0/40lb.png,,"1/12/21, 10:10 AM","1/20/21, 10:19 AM",,,"Block after Info Column",,,,"Use config",,,,,,,"Use config",,"stripe_sub_enabled=No,stripe_sub_interval=Months",100.0000,0.0000,1,0,0,1,1.0000,1,1.0000,0,1,1.0000,1,1,1,1,1.0000,1,1,0,0,,,,,,,/4/0/40lb.png,,,,,,,,,,,,,,
Nitrogen60Content,,Default,simple,"Default Category,Default Category/All Products",base,"Food Grade Nitrogen 60cf Rent",,"<p>60 cubic feet of Food Grade Nitrogen with 98%-99.5% purity level.</p>",60.000000,2,"Taxable Goods","Catalog, Search",29.000000,,,,nitrogen-60-content,,,"CO2 20 Lb Tank",/6/0/60lb.png,,/6/0/60lb.png,,/6/0/60lb.png,,/6/0/60lb.png,,"1/12/21, 10:12 AM","1/20/21, 10:12 AM",,,"Block after Info Column",,,,"Use config",,,,,,,"Use config",,"stripe_sub_enabled=No,stripe_sub_interval=Months",100.0000,0.0000,1,0,0,1,1.0000,1,1.0000,0,1,1.0000,1,1,1,1,1.0000,1,1,0,0,,,,,,,/6/0/60lb.png,,,,,,,,,,,,,,
BeerGasN27525CO220Content,,Default,simple,"Default Category,Default Category/All Products",base,"Beer Gas Mix: 75% NO2 25% CO2 20 Tank",,"<div>
<p><strong>PRODUCT DESCRIPTION:</strong></p>
<p>Beer Gas is a blend of both CO<sub>2</sub> (25%) and Nitrogen (N<sub>2</sub>) (75%).  This is a colorless, odorless gas and may exist as a solid, liquid or gas.  Beer Gas is primarily used for draft beer on tap and is sold by cubic feet (cf.) and available in high pressure cylinders such as this.</p>
<br />
<p><strong>PRODUCT DETAILS:</strong></p>
<br />
<ul>
<li>5.25″ diameter x 18″ height (with valve)</li>
</ul>
<p><strong>(Note: due to differences between manufacturers, cylinder height may vary by +/- several inches)</strong></p>
<ul>
<li>UN/ISO stamped</li>
<li>DOT approved</li>
<li>Tare weight is approx. 11 lbs.</li>
<li>Certified or hydro-tested every 5-10yrs. (based on steel/ aluminum)</li>
<li>Product and cylinder are leak tested on each fill</li>
<li>CGA580 Connection valve</li>
<li>Food Grade Gas</li>
</ul>
</div>",60.000000,1,"Taxable Goods","Catalog, Search",29.000000,,,,beer-gas-mix-75-n-sub-2-sub-25-co-sub-2-sub-20-content,"Beer Gas Mix: 75% N2 25% CO2 20 Tank",,,/b/e/beermix_20.png,,/b/e/beermix_20.png,,/b/e/beermix_20.png,,/b/e/beermix_20.png,,"1/12/21, 10:13 AM","2/20/21, 11:19 AM",,,"Block after Info Column",,,,"Use config",,,,,,,"Use config",,"am_subscription_only=Yes,stripe_sub_enabled=No,stripe_sub_interval=Months",100.0000,0.0000,1,0,0,1,1.0000,1,1.0000,0,1,1.0000,1,1,1,1,1.0000,1,1,0,0,,,,,,,/b/e/beermix_20.png,,,,,,,,,,,,,,
AerosphereStandardCO2Monitor,,Default,simple,"Default Category,Default Category/All Products",base,"Standard Carbon Dioxide Monitor",,"<p>­­State & Local Jurisdictions may require a CO<sub>2</sub> monitor to be installed to track hazardous high concentrated levels of CO<sub>2</sub>.</p>
<p>EspriGas partners with Aerosphere Monitoring to provide Monitors that meet most Fire Codes, especially national standards: NBIC & NFPA. Please check with your local Jurisdiction (Fire Marshall & Fire Department) for your region’s specific code.</p>
<p>The Standard Monitoring System includes a <a href=""https://aerospheremonitoring.com/products/primary-unit"" target=""_blank""><strong>Primary Unit</strong></a>, <a href=""https://aerospheremonitoring.com/products/co2-sensor""  target=""_blank""><strong>CO</strong><strong><sub>2</sub></strong><strong> Sensor</strong></a>, <a href=""https://aerospheremonitoring.com/products/704-hazmat-sign""  target=""_blank""><strong>704 Hazmat Sign</strong></a>, <a href=""https://aerospheremonitoring.com/products/sensor-cable""  target=""_blank""><strong>6 ft. Sensor Cable</strong></a>, <a href=""https://aerospheremonitoring.com/products/hardware""  target=""_blank""><strong>Screws/ Cable Clamps/ Power Strap</strong></a>, <a href=""https://aerospheremonitoring.com/products/evacuation-sign""  target=""_blank""><strong>Evacuation Sign</strong></a>, and <a href=""https://cdn.shopify.com/s/files/1/0253/4404/9234/files/manual11.pdf?463""  target=""_blank""><strong>Installation Manual</strong></a>.</p>
<p>The entire system is powered from a single 110V socket which provides high visibility for gas detection and temperature on a white-on-black LCD display. Audible and visual alarms are provided for three concentrations of CO<sub>2</sub> for the default settings at 5,000, 15,000 and 30,000 parts per million (ppm). It is not recommended to change these levels, but for special circumstances it can be done.</p>",60.000000,1,"Taxable Goods","Catalog, Search",29.000000,,,,standard-carbon-dioxide-monitor,,,,/c/o/co2monitor.png,,/c/o/co2monitor.png,,/c/o/co2monitor.png,,/c/o/co2monitor.png,,"1/12/21, 10:16 AM","2/20/21, 11:17 AM",,,"Block after Info Column",,,,"Use config",,,,,,,"Use config",,"am_subscription_only=Yes,stripe_sub_enabled=No,stripe_sub_interval=Months",97.0000,0.0000,1,0,0,1,1.0000,1,1.0000,0,1,1.0000,1,1,1,1,1.0000,1,1,0,0,,,,,,,/c/o/co2monitor.png,,,,,,,,,,,,,,
"CO2 20 Lb Content-1",,Default,simple,"Default Category,Default Category/All Products",base,"Beverage Grade Carbon Dioxide 20lb Tank",,"<div>
<p><strong>PRODUCT DESCRIPTION:</strong></p>
<p>Carbon Dioxide (CO<sub>2</sub>) is a nonflammable, colorless, odorless gas that is found in the air at concentrations of approximately .03%.  CO<sub>2</sub> may exist as a solid, liquid and gas and for beverages is the source of carbonation in soft drinks.  CO<sub>2</sub> is sold by weight (lbs.) and available in high pressure cylinders such as this.</p>
<br />
<p><strong>PRODUCT DETAILS:</strong></p>
<br />
<ul>
<li>8″ diameter x 27.25″ height (with valve and handle)</li>
<li>DOT approved</li>
<li>Tare Weight varies between 20-35 lbs. (based on aluminum/ steel cylinder)</li>
<li>Certified or hydro-tested every 5-10 yrs. (based on aluminum/ steel cylinder)</li>
<li>Product and cylinder are leak tested on each fill</li>
<li>CGA320 Connection valve</li>
<li>Food Grade Gas </li>
<li>(1) 20lb CO<sub>2</sub> supports approx. (5) 5gal. Bag-in-Box of Fountain Syrup or ~19k finished ounces of soda</li>
</ul>
</div>",,1,"Taxable Goods","Catalog, Search",23.890000,,,,beverage-grade-carbon-dioxide-20lb-tank,"Small CO2 20 Lb Content","Small CO2 20 Lb Content","Small CO2 20 Lb Content ",/c/a/carbondioxide_20.png,,/c/a/carbondioxide_20.png,,/c/a/carbondioxide_20.png,,/c/a/carbondioxide_20.png,,"1/20/21, 10:08 AM","2/20/21, 11:11 AM",,,"Block after Info Column",,,,"Use config",,,,,,,"Use config",,"am_subscription_only=Yes,documention_title=View SDS Sheet,documention_url=http://www.esprigas.com/sites/default/files/msds-sheets/CO2%20SDS.pdf,stripe_sub_enabled=No,stripe_sub_interval=Months",98.0000,0.0000,1,0,0,1,1.0000,1,10000.0000,1,1,1.0000,1,1,1,1,1.0000,1,1,0,0,,,,,,,/c/a/carbondioxide_20.png,,,,,,,,,,,,,,
"CO2 50 Lb Content-1",,Default,simple,"Default Category,Default Category/All Products",base,"Beverage Grade Carbon Dioxide 50lb Tank",,"<p><strong>PRODUCT DESCRIPTION:</strong></p>
<p>Carbon Dioxide (CO<sub>2</sub>) is a nonflammable, colorless, odorless gas that is found in the air at concentrations of approximately .03%. CO<sub>2</sub> may exist as a solid, liquid and gas and for beverages is the source of carbonation in soft drinks. CO<sub>2</sub> is sold by weight (lbs.) and available in high pressure cylinders such as this.</p>
<p> </p>
<p><strong>PRODUCT DETAILS:</strong></p>
<p> </p>
<ul>
<li>8.6″ diameter x 50″ height (with valve)</li>
<li>DOT approved</li>
<li>Tare Weight varies between 50-75 lbs. (based on aluminum/ steel cylinder)</li>
<li>Certified or hydro-tested every 5-10 yrs. (based on aluminum/ steel cylinder)</li>
<li>Product and cylinder are leak tested on each fill</li>
<li>CGA320 Connection valve</li>
<li>Food Grade Gas</li>
<li>(1) 50lb CO<sub>2</sub> supports approx. (12) 5gal. Bag-in-Box of Fountain Syrup or ~45k finished ounces of soda</li>
</ul>",,1,"Taxable Goods","Catalog, Search",37.240000,,,,beverage-grade-carbon-dioxide-50lb-tank,,,,/c/a/carbondioxide_50.png,,/c/a/carbondioxide_50.png,,/c/a/carbondioxide_50.png,,/c/a/carbondioxide_50.png,,"1/20/21, 10:10 AM","2/20/21, 11:13 AM",,,"Block after Info Column",,,,"Use config",,,,,,,"Use config",,"am_subscription_only=No,documention_title=View SDS Sheet,documention_url=http://www.esprigas.com/sites/default/files/msds-sheets/CO2%20SDS.pdf,stripe_sub_enabled=No,stripe_sub_interval=Months,stripe_sub_interval_count=1",97.0000,0.0000,1,0,0,1,1.0000,1,10000.0000,1,1,1.0000,1,1,1,1,1.0000,1,1,0,0,,,,,,,/c/a/carbondioxide_50.png,,,,,,,,,,,,,,
Nitrogen60Content-1,,Default,simple,"Default Category,Default Category/All Products",base,"Food Grade Nitrogen 60lb Tank",,"<div>
<p><strong>PRODUCT DESCRIPTION:</strong></p>
<p>Nitrogen (N<sub>2</sub>) is a colorless, odorless gas.  Nitrogen may exist as a solid, liquid or gas.  Nitrogen is primarily used for draft beer, cold brew coffee, tea, and wine on tap.  Nitrogen is sold by cubic feet (cf.) and available in high pressure cylinders such as this.</p>
<br />
<p><strong>PRODUCT DETAILS:</strong></p>
<br />
<ul>
<li>7″ diameter x 22.5″ height (with valve)</li>
</ul>
<p><strong>(Note: due to differences between manufacturers, cylinder height may vary by +/- several inches.)</strong></p>
<ul>
<li>UN/ISO stamped</li>
<li>DOT approved</li>
<li>Tare Weight is approx. 29 lbs.</li>
<li>Certified or hydro-tested every 5-10yrs. (based on steel/ aluminum)</li>
<li>Product and cylinder are leak tested on each fill</li>
<li>CGA580 Connection valve</li>
<li>Food Grade Gas</li>
</ul>
</div>",60.000000,1,"Taxable Goods","Catalog, Search",29.000000,,,,food-grade-nitrogen-60lb-tank,,,"CO2 20 Lb Tank",/n/i/nitrogen_60_500x500.png,,/n/i/nitrogen_60_300x300.png,,/n/i/nitrogen_60_300x300.png,,/n/i/nitrogen_60_300x300.png,,"1/20/21, 10:12 AM","2/20/21, 10:30 AM",,,"Block after Info Column",,,,"Use config",,,,,,,"Use config",,"am_subscription_only=Yes,documention_title=View SDS Sheet,documention_url=http://www.esprigas.com/sites/default/files/msds-sheets/Nitrogen%20SDS.pdf,stripe_sub_enabled=No,stripe_sub_interval=Months",98.0000,0.0000,1,0,0,1,1.0000,1,10000.0000,1,1,1.0000,1,1,1,1,1.0000,1,1,0,0,,,,,,,"/n/i/nitrogen_60_100x100.png,/n/i/nitrogen_60_300x300.png,/n/i/nitrogen_60_500x500.png",",,",,,,,,,,,,,,,
Nitrogen40Content-1,,Default,simple,"Default Category,Default Category/All Products",base,"Food Grade Nitrogen 40lb Tank",,"<div>
<p><strong>PRODUCT DESCRIPTION:</strong></p>
<p>Nitrogen (N<sub>2</sub>) is a colorless, odorless gas.  Nitrogen may exist as a solid, liquid or gas.  Nitrogen is primarily used for draft beer, cold brew coffee, tea, and wine on tap.  Nitrogen is sold by cubic feet (cf.) and available in high pressure cylinders such as this.</p>
<br />
<p><strong>PRODUCT DETAILS:</strong></p>
<br />
<ul>
<li>7″ diameter x 17.25″ height (with valve) </li>
</ul>
<p><strong>(Note: due to differences between manufacturers, cylinder height may vary by +/- several inches.)</strong></p>
<ul>
<li>UN/ISO stamped</li>
<li>DOT approved</li>
<li>Tare Weight is approx. 24 lbs.</li>
<li>Certified or hydro-tested every 5-10yrs. (based on steel/ aluminum)</li>
<li>Product and cylinder are leak tested on each fill</li>
<li>CGA580 Connection valve</li>
<li>Food Grade Gas</li>
</ul>
</div>",20.000000,1,"Taxable Goods","Catalog, Search",29.000000,,,,food-grade-nitrogen-40lb-tank,,,,/n/i/nitrogen_40_500x500.png,,/n/i/nitrogen_40_300x300.png,,/n/i/nitrogen_40_300x300.png,,/n/i/nitrogen_40_300x300.png,,"1/20/21, 10:19 AM","2/20/21, 11:25 AM",,,"Block after Info Column",,,,"Use config",,,,,,,"Use config",,"am_subscription_only=Yes,documention_title=View SDS Sheet,documention_url=http://www.esprigas.com/sites/default/files/msds-sheets/Nitrogen%20SDS.pdf,stripe_sub_enabled=No,stripe_sub_interval=Months",100.0000,0.0000,1,0,0,1,1.0000,1,10000.0000,1,1,1.0000,1,1,1,1,1.0000,1,1,0,0,,,,,,,"/n/i/nitrogen_40_100x100.png,/n/i/nitrogen_40_300x300.png,/n/i/nitrogen_40_500x500.png",",,",,,,,,,,,,,,,
"CO2 Bulk Order-1",,Default,simple,"Default Category,Default Category/All Products",base,"Beverage Grade Carbon Dioxide Bulk",,"<div>
<p><strong>PRODUCT DESCRIPTION:</strong></p>
<p>Carbon Dioxide (CO2) is a nonflammable, colorless, odorless gas that is found in the air at concentrations of approximately .03%. CO2 may exist as a solid, liquid and gas and for beverages is the source of carbonation in soft drinks. CO2 is sold by weight (lbs.) and available in high pressure cylinders such as this.</p>
<br />
<p><strong>CAUTION:</strong> Always use in accordance with the Safety Data Sheet (SDS)</p>
<br />
<p><strong>PRODUCT DETAILS:</strong></p>
<br />
<table border=""1"">
<tbody>
<tr>
<td><strong>TANK SIZE</strong></td>
<td>220</td>
<td>300</td>
<td>450</td>
<td>550</td>
</tr>
<tr>
<td><strong>DIAMETER</strong></td>
<td>20”</td>
<td>20”</td>
<td>20”</td>
<td>22”</td>
</tr>
<tr>
<td><strong>HEIGHT</strong></td>
<td>40”</td>
<td>55”</td>
<td>72”</td>
<td>73”</td>
</tr>
<tr>
<td><strong>WEIGHT FULL</strong></td>
<td>377LB</td>
<td>515LB</td>
<td>750LB</td>
<td>902LB</td>
</tr>
</tbody>
</table>
<ul>
<li>DOT approved</li>
<li>Food Grade Gas</li>
</ul>
</div>",,1,"Taxable Goods","Catalog, Search",15.000000,,,,beverage-grade-carbon-dioxide-bulk,"CO2 Bulk Order","CO2 Bulk Order","CO2 Bulk Order ",/c/a/carbondioxide_microbulk450.png,,/c/a/carbondioxide_microbulk450.png,,/c/a/carbondioxide_microbulk450.png,,/c/a/carbondioxide_microbulk450.png,,"1/20/21, 10:21 AM","2/20/21, 11:13 AM",,,"Block after Info Column",,,,"Use config",,,,,,,"Use config",,"am_subscription_only=Yes,documention_title=View SDS Sheet,documention_url=http://www.esprigas.com/sites/default/files/msds-sheets/CO2%20SDS.pdf,stripe_sub_enabled=No,stripe_sub_interval=Months",98.0000,0.0000,1,0,0,1,1.0000,1,10000.0000,1,1,1.0000,1,1,1,1,1.0000,1,1,0,0,,,,,,,/c/a/carbondioxide_microbulk450.png,,,,,,,,,,,,,,
Nitrogen80Content-1,,Default,simple,"Default Category,Default Category/All Products",base,"Food Grade Nitrogen 80lb Tank",,"<div>
<p><strong>PRODUCT DESCRIPTION:</strong></p>
<p>Nitrogen (N<sub>2</sub>) is a colorless, odorless gas.  Nitrogen may exist as a solid, liquid or gas.  Nitrogen is primarily used for draft beer, cold brew coffee, tea, and wine on tap.  Nitrogen is sold by cubic feet (cf.) and available in high pressure cylinders such as this.</p>
<br />
<p><strong>PRODUCT DETAILS:</strong></p>
<br />
<ul>
<li>7″ diameter x 31″ height (with valve)</li>
</ul>
<p><strong>(Note: due to differences between manufacturers, cylinder height may vary by +/- several inches)</strong></p>
<ul>
<li>DOT approved</li>
<li>Tare Weight is approx. 47 lbs.</li>
<li>Certified or hydro-tested every 5-10yrs. (based on steel/ aluminum)</li>
<li>Product and cylinder are leak tested on each fill</li>
<li>CGA580 Connection valve</li>
<li>Food Grade Gas</li>
</ul>
</div>",20.000000,1,"Taxable Goods","Catalog, Search",29.000000,,,,food-grade-nitrogen-80lb-tank,,,,/n/i/nitrogen_80.png,,/n/i/nitrogen_80.png,,/n/i/nitrogen_80.png,,/n/i/nitrogen_80.png,,"2/20/21, 10:32 AM","2/20/21, 11:27 AM",,,"Block after Info Column",,,,"Use config",,,,,,,"Use config",,"am_subscription_only=Yes,stripe_sub_enabled=No,stripe_sub_interval=Months",100.0000,0.0000,1,0,0,1,1.0000,1,10000.0000,1,1,1.0000,1,1,1,1,1.0000,1,1,0,0,,,,,,,/n/i/nitrogen_80.png,,,,,,,,,,,,,,
Nitrogen200Content-1-1,,Default,simple,"Default Category,Default Category/All Products",base,"Food Grade Nitrogen 200lb Tank",,"<div>
<p><strong>PRODUCT DESCRIPTION:</strong></p>
<p>Nitrogen (N<sub>2</sub>) is a colorless, odorless gas.  Nitrogen may exist as a solid, liquid or gas.  Nitrogen is primarily used for draft beer, cold brew coffee, tea, and wine on tap.  Nitrogen is sold by cubic feet (cf.) and available in high pressure cylinders such as this.</p>
<br />
<p><strong>PRODUCT DETAILS:</strong></p>
<br />
<ul>
<li>9″ diameter x 51″ height (with valve)</li>
</ul>
<p><strong>(Note: due to differences between manufacturers, cylinder height may vary by +/- several inches)</strong></p>
<ul>
<li>DOT approved</li>
<li>Tare weight is approx. 106 lbs.</li>
<li>Certified or hydro-tested every 5-10yrs. (based on steel/ aluminum)</li>
<li>Product and cylinder are leak tested on each fill</li>
<li>CGA580 Connection valve</li>
<li>3/4″ NGT inlet thread</li>
<li>Food Grade Gas</li>
</ul>
</div>",20.000000,1,"Taxable Goods","Catalog, Search",29.000000,,,,food-grade-nitrogen-200lb-tank,,,,/n/i/nitrogen_200.png,,/n/i/nitrogen_200.png,,/n/i/nitrogen_200.png,,/n/i/nitrogen_200.png,,"2/20/21, 10:39 AM","2/20/21, 11:28 AM",,,"Block after Info Column",,,,"Use config",,,,,,,"Use config",,"am_subscription_only=Yes,stripe_sub_enabled=No,stripe_sub_interval=Months",100.0000,0.0000,1,0,0,1,1.0000,1,10000.0000,1,1,1.0000,1,1,1,1,1.0000,1,1,0,0,,,,,,,/n/i/nitrogen_200.png,,,,,,,,,,,,,,
BeerGasN27525CO240Content-1,,Default,simple,"Default Category,Default Category/All Products",base,"Beer Gas Mix: 75% NO2 25% CO2 40 Tank",,"<div>
<p><strong>PRODUCT DESCRIPTION:</strong></p>
<p>Beer Gas is a blend of both CO<sub>2</sub> (25%) and Nitrogen (N<sub>2</sub>) (75%).  This is a colorless, odorless gas and may exist as a solid, liquid or gas.  Beer Gas is primarily used for draft beer on tap and is sold by cubic feet (cf.) and available in high pressure cylinders such as this.</p>
<br />
<p><strong>PRODUCT DETAILS:</strong></p>
<br />
<ul>
<li>7″ diameter x 17.25″ height (with valve)</li>
</ul>
<p><strong>(Note: due to differences between manufacturers, cylinder height may vary by +/- several inches)</strong></p>
<ul>
<li>UN/ISO stamped</li>
<li>DOT approved</li>
<li>Tare weight is approx. 24 lbs.</li>
<li>Certified or hydro-tested every 5-10yrs. (based on steel/ aluminum)</li>
<li>Product and cylinder are leak tested on each fill</li>
<li>CGA580 Connection valve</li>
<li>Food Grade Gas</li>
</ul>
</div>",60.000000,1,"Taxable Goods","Catalog, Search",29.000000,,,,beer-gas-mix-75-no2-25-co2-40-tank,"Beer Gas Mix: 75% N2 25% CO2 40 Tank",,,/b/e/beermix_40.png,,/b/e/beermix_40.png,,/b/e/beermix_40.png,,/b/e/beermix_40.png,,"2/20/21, 10:43 AM","2/20/21, 11:20 AM",,,"Block after Info Column",,,,"Use config",,,,,,,"Use config",,"am_subscription_only=Yes,stripe_sub_enabled=No,stripe_sub_interval=Months",100.0000,0.0000,1,0,0,1,1.0000,1,10000.0000,1,1,1.0000,1,1,1,1,1.0000,1,1,0,0,,,,,,,/b/e/beermix_40.png,,,,,,,,,,,,,,
BeerGasN27525CO280Content-1-1,,Default,simple,"Default Category,Default Category/All Products",base,"Beer Gas Mix: 75% NO2 25% CO2 80 Tank",,"<div>
<p><strong>PRODUCT DESCRIPTION:</strong></p>
<p>Beer Gas is a blend of both CO<sub>2</sub> (25%) and Nitrogen (N<sub>2</sub>) (75%).  This is a colorless, odorless gas and may exist as a solid, liquid or gas.  Beer Gas is primarily used for draft beer on tap and is sold by cubic feet (cf.) and available in high pressure cylinders such as this.</p>
<br />
<p><strong>PRODUCT DETAILS:</strong></p>
<br />
<ul>
<li>7″ diameter x 31″ height (with valve)</li>
</ul>
<p><strong>(Note: due to differences between manufacturers, cylinder height may vary by +/- several inches)</strong></p>
<ul>
<li>DOT approved</li>
<li>Tare weight is approx. 47 lbs.</li>
<li>Certified or hydro-tested every 5-10yrs. (based on steel/ aluminum)</li>
<li>Product and cylinder are leak tested on each fill</li>
<li>New CGA580 valve</li>
<li>3/4″ NGT inlet thread</li>
<li>Food Grade Gas</li>
</ul>
</div>",60.000000,1,"Taxable Goods","Catalog, Search",29.000000,,,,beer-gas-mix-75-no2-25-co2-80-tank,"Beer Gas Mix: 75% N2 25% CO2 80 Tank",,,/b/e/beermix_60.png,,/b/e/beermix_60.png,,/b/e/beermix_60.png,,/b/e/beermix_60.png,,"2/20/21, 10:48 AM","2/20/21, 11:20 AM",,,"Block after Info Column",,,,"Use config",,,,,,,"Use config",,"am_subscription_only=Yes,stripe_sub_enabled=No,stripe_sub_interval=Months",100.0000,0.0000,1,0,0,1,1.0000,1,10000.0000,1,1,1.0000,1,1,1,1,1.0000,1,1,0,0,,,,,,,/b/e/beermix_60.png,,,,,,,,,,,,,,
BeerGasN27525CO2200Content-1-1-1,,Default,simple,"Default Category,Default Category/All Products",base,"Beer Gas Mix: 75% NO2 25% CO2 200 Tank",,"<div>
<p><strong>PRODUCT DESCRIPTION:</strong></p>
<p>Nitrogen (N<sub>2</sub>) is a colorless, odorless gas.  Nitrogen may exist as a solid, liquid or gas.  Nitrogen is primarily used for draft beer, cold brew coffee, tea, and wine on tap.  Nitrogen is sold by cubic feet (cf.) and available in high pressure cylinders such as this.</p>
<br />
<p><strong>PRODUCT DETAILS:</strong></p>
<br />
<ul>
<li>9″ diameter x 51″ height (with valve)</li>
</ul>
<p><strong>(Note: due to differences between manufacturers, cylinder height may vary by +/- several inches)</strong></p>
<ul>
<li>DOT approved</li>
<li>Tare weight is approx. 106 lbs.</li>
<li>Certified or hydro-tested every 5-10yrs. (based on steel/ aluminum)</li>
<li>Product and cylinder are leak tested on each fill</li>
<li>CGA580 Connection valve</li>
<li>3/4″ NGT inlet thread</li>
<li>Food Grade Gas</li>
</ul>
</div>",60.000000,1,"Taxable Goods","Catalog, Search",29.000000,,,,beer-gas-mix-75-no2-25-co2-200-tank,"Beer Gas Mix: 75% N2 25% CO2 200 Tank",,,/b/e/beermix_200.png,,/b/e/beermix_200.png,,/b/e/beermix_200.png,,/b/e/beermix_200.png,,"2/20/21, 10:53 AM","2/20/21, 11:09 AM",,,"Block after Info Column",,,,"Use config",,,,,,,"Use config",,"am_subscription_only=Yes,stripe_sub_enabled=No,stripe_sub_interval=Months",100.0000,0.0000,1,0,0,1,1.0000,1,10000.0000,1,1,1.0000,1,1,1,1,1.0000,1,1,0,0,,,,,,,/b/e/beermix_200.png,,,,,,,,,,,,,,
"Monthly  Subscription",,Default,virtual,,base,"Monthly  Subscription",,,,2,"Taxable Goods","Catalog, Search",34.730000,,,,monthly-subscription,"Monthly  Subscription","Monthly  Subscription","Monthly  Subscription ",,,,,,,,,"2/21/21, 9:21 AM","2/21/21, 9:21 AM",,,"Block after Info Column",,,,"Use config",,,,,,,"Use config",,"am_subscription_only=Yes,stripe_sub_enabled=Yes,stripe_sub_interval=Months,stripe_sub_interval_count=1",0.0000,0.0000,1,0,0,1,1.0000,1,10000.0000,1,0,1.0000,1,1,1,1,1.0000,1,1,0,0,,,,,,,,,,,,,,,,,,,,,
