email,_website,_store,prefix,firstname,middlename,lastname,suffix,group_id,dob,rp_token_created_at,taxvat,confirmation,created_at,gender,disable_auto_group_change,updated_at,failures_num,first_failure,lock_expires,ms_id,program_id,delivery_days_id,delivery_frequency_id,business_name,active
tester@yopmail.com,base,default,,test,,testi,,1,,"2021-01-05 07:16:41",,,"2021-01-05 07:16:41",0,0,"2021-01-31 11:03:59",0,,,,,,,,No
espri@yopmail.com,base,default,,espri,,test,,1,,"2021-01-07 07:26:00",,,"2021-01-07 07:25:59",0,0,"2021-01-31 11:03:59",0,,,,,,,,No
akshay32@yopmail.com,base,default,,test,,akshay,,1,,"2021-01-07 10:19:31",,,"2021-01-07 10:19:31",0,0,"2021-01-31 11:03:59",0,,,,,,,,No
pvr@yopmail.com,base,default,,pvr,,test,,1,,"2021-01-07 10:19:54",,,"2021-01-07 10:19:54",0,0,"2021-01-31 11:03:59",0,,,,,,,,No
ak@yopmail.com,base,default,,testing,,ak,,1,,"2021-01-07 14:10:45",,,"2021-01-07 14:10:45",0,0,"2021-01-31 11:04:00",0,,,,,,,,No
vobizinote@mailinator.com,base,default,,Elton,,Dickerson,,1,,"2021-01-11 16:12:12",,,"2021-01-11 16:12:12",0,0,"2021-01-31 11:04:00",0,,,,,,,,No
test@gmail.com,base,default,,Test,,Test,,1,,,,,"2021-01-11 19:08:56",0,0,"2021-01-31 11:04:00",0,,,21546856,,,,Coke,No
lee30024@gmail.com,base,default,,"Test Beagle Account",,"Lee Roberts",,1,,"2021-01-11 21:17:22",,,"2021-01-11 21:17:22",0,0,"2021-01-31 11:04:00",1,"2021-01-22 19:19:23",,,,,,,No
cperkett@esprigas.com,base,default,,Connor,,Perkett,,1,,"2021-01-13 13:09:00",,,"2021-01-13 13:09:00",0,0,"2021-01-31 11:04:00",0,,,NAV051,,,,,No
cfarmer@esprigas.com,base,default,,Farmer,,Chris,,1,,"2021-01-13 13:12:29",,,"2021-01-13 13:12:29",0,0,"2021-01-31 11:04:00",0,,,,,,,,No
lroberts@esprigas.com,base,default,,"Franklin Coffee House",,"Lee Roberts",,1,,"2021-01-13 13:16:46",,,"2021-01-13 13:16:46",0,0,"2021-01-31 11:04:00",0,,,,,,,,No
perkett21@gmail.com,base,default,,Biz,,Connor,,1,,"2021-01-13 14:57:19",,,"2021-01-13 14:57:19",0,0,"2021-01-31 11:04:00",0,,,,,,,,No
Ruby.Neugen@gmail.com,base,default,,"Cafe Java",,Ruby,,1,,"2021-01-19 12:48:33",,,"2021-01-19 12:48:33",0,0,"2021-01-31 11:04:01",0,,,,,,,,No
test@yopmail.com,base,default,,test1,,test1,,1,,"2021-01-19 12:57:50",,,"2021-01-19 12:57:50",0,0,"2021-01-31 11:04:01",0,,,,,,,,No
test1@gmail.com,base,default,,"Theodore Lowe",,Jhon,,1,,"2021-01-21 05:34:59",,,"2021-01-21 05:34:59",0,0,"2021-01-31 11:04:01",0,,,,,,,,No
pankaj@gmail.com,base,default,,Pankaj,,gupta,,1,,"2021-01-21 06:48:27",,,"2021-01-21 06:48:27",0,0,"2021-01-31 11:04:01",0,,,,,,,"Theodore Lowe",No
pete@yopmail.com,base,default,,Pete,,Sampras,,1,,"2021-01-21 18:39:11",,,"2021-01-21 18:39:11",0,0,"2021-01-31 11:04:01",0,,,,,,,"Cafe Sanford",No
tom.alter@yopmail.com,base,default,,Tom,,Alter,,5,,"2021-01-27 10:39:33",,,"2021-01-27 10:39:32",0,0,"2021-01-31 11:04:01",0,,,NAV00022,,,,"Cafe Sanjose",No
ajay.kumar@venture7.in,base,default,,Ajay,,Rai,,1,,"2021-01-28 09:18:54",,,"2021-01-28 09:18:54",0,0,"2021-01-31 11:04:01",0,,,,,,,Tester,No
