<?xml version="1.0" standalone="no"?>
<!DOCTYPE svg PUBLIC "-//W3C//DTD SVG 20010904//EN"
 "http://www.w3.org/TR/2001/REC-SVG-20010904/DTD/svg10.dtd">
<svg version="1.0" xmlns="http://www.w3.org/2000/svg"
 width="7042.000000pt" height="2550.000000pt" viewBox="0 0 7042.000000 2550.000000"
 preserveAspectRatio="xMidYMid meet">
<metadata>
Created by potrace 1.16, written by Peter Selinger 2001-2019
</metadata>
<g transform="translate(0.000000,2550.000000) scale(0.100000,-0.100000)"
fill="#000000" stroke="none">
<path d="M51130 19214 c-414 -27 -664 -64 -980 -144 -1710 -431 -3039 -1787
-3479 -3550 -116 -463 -156 -802 -155 -1315 0 -341 11 -508 50 -775 156 -1080
627 -2054 1356 -2806 1027 -1059 2465 -1559 3943 -1373 819 104 1605 435 2245
946 l105 84 5 -273 c5 -253 7 -277 28 -326 58 -139 152 -231 287 -282 73 -27
205 -37 290 -21 182 34 332 175 380 356 13 52 15 286 15 1970 0 2088 3 1966
-57 2076 -34 63 -119 148 -181 182 -108 59 -73 57 -1192 57 -915 0 -1032 -2
-1081 -16 -163 -49 -283 -163 -330 -315 -26 -85 -26 -220 2 -301 53 -157 175
-271 336 -313 48 -13 172 -15 780 -15 l723 0 0 -744 0 -744 -102 -108 c-245
-256 -599 -534 -928 -729 -463 -274 -958 -447 -1490 -522 -158 -22 -696 -25
-860 -5 -463 57 -864 174 -1232 358 -356 179 -637 382 -923 668 -598 599 -984
1414 -1104 2331 -61 463 -54 969 20 1410 263 1579 1348 2796 2812 3155 313 76
497 100 847 107 364 7 625 -14 960 -78 585 -113 1125 -324 1622 -635 149 -93
213 -115 330 -115 184 0 327 82 431 248 87 138 91 352 10 492 -45 78 -104 132
-248 226 -343 225 -701 397 -1130 541 -447 150 -869 237 -1355 279 -170 14
-639 27 -750 19z"/>
<path d="M44675 19070 c-146 -38 -264 -108 -366 -218 -78 -83 -123 -158 -161
-263 -87 -247 -43 -527 116 -734 91 -119 278 -257 486 -360 l116 -57 134 72
c305 163 458 292 543 456 60 118 87 228 87 359 0 225 -78 406 -244 562 -96 92
-205 152 -330 183 -105 27 -282 27 -381 0z"/>
<path d="M20560 19049 c-176 -34 -330 -197 -359 -379 -15 -91 -15 -8819 0
-8910 30 -187 184 -346 368 -380 35 -7 903 -10 2500 -10 2680 0 2497 -4 2620
58 66 33 157 121 193 189 77 140 77 324 0 467 -35 67 -126 157 -188 189 -121
61 52 57 -2331 57 l-2173 0 0 1720 0 1720 1613 0 c1039 0 1635 4 1677 10 129
20 261 107 331 218 90 142 93 357 6 504 -39 67 -138 155 -212 189 -37 17 -98
34 -138 39 -42 5 -740 10 -1674 10 l-1603 0 0 1680 0 1680 2049 0 c2028 0
2050 0 2114 20 186 57 320 225 334 417 11 144 -31 264 -129 369 -68 72 -166
127 -257 144 -68 13 -4676 12 -4741 -1z"/>
<path d="M5225 16759 c-399 -21 -859 -180 -1232 -425 -202 -133 -436 -347
-587 -534 -158 -197 -315 -469 -406 -702 -268 -684 -233 -1471 95 -2128 137
-276 281 -477 495 -691 403 -403 926 -665 1483 -743 142 -19 602 -15 742 8
399 63 743 193 1056 397 300 196 501 392 787 768 226 296 494 742 759 1267
l97 190 -151 295 c-389 761 -665 1171 -1029 1531 -149 147 -248 229 -395 327
-377 253 -791 397 -1269 440 -125 12 -230 12 -445 0z"/>
<path d="M29020 16564 c-19 -2 -78 -9 -130 -15 -692 -78 -1291 -412 -1625
-909 -221 -329 -327 -715 -312 -1140 13 -365 111 -667 305 -940 142 -201 394
-422 670 -589 266 -161 484 -261 1107 -511 479 -191 608 -247 786 -336 457
-228 671 -438 744 -729 21 -84 24 -248 5 -354 -89 -523 -592 -851 -1303 -851
-607 0 -1164 193 -1672 579 -126 96 -189 122 -306 129 -149 8 -256 -29 -359
-124 -119 -110 -170 -223 -170 -372 0 -195 63 -300 279 -466 428 -328 930
-550 1481 -655 351 -67 762 -86 1085 -51 641 71 1201 346 1551 762 335 400
487 901 433 1429 -60 601 -371 1051 -978 1418 -264 160 -500 269 -1116 514
-535 213 -749 309 -952 428 -233 137 -389 280 -481 440 -158 278 -119 707 88
966 128 160 339 283 605 352 220 58 575 74 830 37 352 -50 675 -170 944 -350
135 -90 200 -116 306 -123 183 -12 339 69 445 232 56 86 80 167 80 268 0 141
-44 252 -134 342 -69 69 -282 209 -441 290 -314 159 -631 254 -1035 311 -109
15 -640 28 -730 18z"/>
<path d="M35436 16559 c-380 -37 -756 -147 -1071 -313 -229 -121 -421 -263
-617 -456 l-138 -136 0 156 c0 94 -6 181 -14 221 -32 149 -124 267 -262 336
-75 37 -82 38 -198 41 -103 3 -130 1 -185 -18 -161 -54 -274 -175 -316 -337
-13 -50 -15 -592 -15 -4483 0 -3944 2 -4432 15 -4485 36 -137 131 -250 261
-312 72 -34 86 -37 190 -41 94 -4 124 -1 181 16 124 38 222 118 281 231 64
119 62 48 62 1680 l0 1484 158 -154 c393 -386 820 -616 1332 -719 215 -43 340
-54 595 -54 248 1 412 17 619 59 1165 236 2040 1129 2371 2420 158 617 188
1367 80 2057 -110 708 -361 1311 -744 1788 -95 119 -299 324 -411 414 -437
349 -951 550 -1545 606 -128 12 -500 11 -629 -1z m624 -988 c527 -92 956 -379
1277 -856 427 -634 588 -1677 403 -2605 -57 -283 -128 -497 -249 -745 -335
-683 -890 -1089 -1592 -1166 -163 -18 -447 -6 -595 25 -213 45 -406 121 -583
231 -548 340 -941 1002 -1075 1815 -40 242 -49 356 -49 625 1 1118 397 2013
1073 2425 237 144 529 238 830 269 143 15 424 6 560 -18z"/>
<path d="M58780 16563 c-309 -23 -640 -85 -935 -175 -349 -105 -832 -345 -966
-478 -91 -90 -139 -208 -139 -340 0 -138 50 -252 159 -360 107 -107 216 -147
371 -137 99 6 140 20 272 99 361 214 728 342 1163 404 148 22 535 25 670 6
291 -41 488 -107 673 -228 359 -234 556 -646 602 -1259 5 -77 10 -166 10 -197
l0 -58 -192 0 c-631 -1 -1186 -34 -1618 -96 -1393 -200 -2261 -729 -2587
-1578 -106 -276 -159 -661 -134 -971 56 -689 419 -1274 1009 -1626 262 -156
594 -270 932 -319 945 -137 1743 106 2361 720 69 69 149 152 177 185 l52 60 0
-215 c0 -295 22 -370 141 -489 184 -184 507 -188 698 -8 53 51 107 141 127
214 18 65 19 149 19 2233 0 2281 1 2250 -45 2553 -60 391 -188 762 -363 1044
-370 596 -978 935 -1817 1012 -104 10 -530 12 -640 4z m1880 -3786 c0 -1058
-526 -2053 -1285 -2431 -160 -80 -271 -119 -433 -152 -364 -74 -803 -19 -1117
138 -368 185 -620 520 -675 897 -16 103 -8 328 14 428 89 409 367 710 838 907
522 219 1250 318 2376 324 l282 2 0 -113z"/>
<path d="M64740 16555 c-882 -100 -1558 -558 -1836 -1242 -109 -270 -158 -597
-134 -893 51 -622 354 -1074 975 -1451 255 -155 498 -267 1085 -501 458 -183
594 -241 775 -329 399 -194 630 -388 730 -613 80 -180 85 -402 14 -621 -108
-339 -428 -585 -883 -681 -165 -35 -466 -44 -670 -20 -506 59 -972 246 -1362
546 -155 120 -227 150 -365 150 -138 0 -250 -48 -349 -150 -69 -71 -121 -160
-139 -240 -25 -107 -7 -239 45 -342 84 -166 519 -466 954 -658 251 -111 638
-217 943 -260 658 -91 1263 -16 1747 216 445 214 760 518 955 919 142 293 192
537 182 893 -8 324 -59 529 -197 790 -129 245 -365 494 -643 680 -308 206
-572 333 -1307 625 -740 294 -1012 439 -1226 652 -182 181 -254 350 -254 593
0 556 388 903 1084 971 208 21 413 10 657 -34 315 -57 590 -169 855 -350 102
-70 164 -94 266 -102 182 -15 344 68 452 231 127 191 107 440 -47 603 -73 77
-295 222 -482 313 -311 153 -630 246 -1005 296 -174 23 -651 28 -820 9z"/>
<path d="M42636 16459 c-532 -50 -1045 -319 -1433 -749 -53 -58 -130 -151
-172 -208 l-76 -102 -5 327 c-6 353 -7 357 -65 457 -32 54 -128 147 -180 174
-73 37 -145 52 -245 52 -150 0 -243 -34 -336 -122 -67 -63 -111 -131 -135
-209 -18 -59 -19 -147 -19 -3182 0 -2613 2 -3130 14 -3173 45 -169 192 -307
364 -343 234 -49 461 59 559 265 l38 79 6 1510 c6 1596 6 1592 54 1918 90 611
321 1209 619 1611 238 319 510 526 826 630 135 44 265 65 467 75 161 8 164 8
238 45 196 97 300 305 266 532 -28 192 -167 352 -346 399 -75 19 -307 27 -439
14z"/>
<path d="M44698 16391 c-82 -26 -135 -61 -199 -128 -62 -65 -89 -111 -113
-194 -15 -50 -16 -343 -14 -3199 l3 -3145 36 -75 c90 -189 269 -292 483 -277
45 3 106 13 136 23 122 41 240 154 292 281 l23 58 3 3140 c2 2840 1 3145 -14
3195 -42 148 -167 275 -315 321 -82 25 -241 25 -321 0z"/>
<path d="M12425 12333 c-95 -4 -730 -44 -731 -46 -54 -75 -362 -586 -472 -783
-170 -306 -358 -701 -453 -951 -108 -285 -159 -581 -160 -915 0 -508 133 -962
417 -1419 46 -75 84 -142 84 -149 0 -40 294 -349 450 -474 377 -301 837 -497
1335 -568 137 -20 552 -17 695 5 471 71 891 249 1260 535 117 91 316 287 413
407 295 365 481 783 563 1265 21 128 30 513 15 662 -15 142 -65 396 -90 451
-10 23 -31 80 -46 127 -36 110 -124 310 -187 425 -355 642 -957 1112 -1652
1290 -396 101 -980 157 -1441 138z"/>
</g>
</svg>
